[{
	"id": "email",
	"columns": [
		{
			"id": "FUSYEMAIL100",
			"name": "emailId",
			"type": "integer",
			"primary_key": true
		},
		{
			"id": "FUSYEMAIL110",
			"name": "emailAddress",
			"length": 80,
			"unique": true
		},
		{
			"id": "FUSYEMAIL120",
			"name": "emailIsPrimary",
			"type": "boolean"
		},
		{
			"id": "FUSYEMAIL130",
			"name": "emailCreation",
			"type": "datetime",
			"default": "CURRENT_TIMESTAMP",
			"not_null": true
		},
		{
			"id": "FUSYEMAIL140",
			"name": "emailValidation",
			"type": "datetime"
		},
		{
			"id": "FUSYEMAIL150",
			"name": "emailLastRequest",
			"type": "datetime",
			"default": "CURRENT_TIMESTAMP",
			"not_null": true
		},
		{
			"id": "FUSYEMAIL160",
			"name": "emailPersonId",
			"type": "integer",
			"not_null":  true,
			"foreign_key": {
				"table": "person",
		 		"reference": "personId",
		 		"on_delete": "cascade"
			}
		}
	]
}]